{
  "Id": "Creative Flight",
  "DisplayName": "Creative Flight",
  "Author": "Oldark",
  "Version": "1.0",
  "Requires": [ ],
  "Enable": true,
  "AssemblyName": "CreativeFlight.dll",
  "EntryMethod": "CreativeFlight.MainPatcher.Patch",
  "Config": {}
}
